{
    "companyName": "Rob Mooney",
    "longName": "Next DART",
    "resources": {
        "media": [
            {
                "menuIcon": true,
                "type": "png",
                "name": "IMAGE_MENU_ICON",
                "file": "menu.png"
            },
            {
                "type": "png",
                "name": "IMAGE_SEPARATOR",
                "file": "separator.png"
            }
        ]
    },
    "shortName": "Next DART",
    "uuid": "e3c7386f-102a-46ef-b333-a3922c22e08a",
    "versionCode": 1,
    "versionLabel": "1.1",
    "watchapp": {
        "watchface": false
    },
    "capabilities": [ "location" ],
    "appKeys": {
        "status": 0,
        "station": 1,
        "northboundTrains": 2,
        "southboundTrains": 3
    }
}